<?xml version="1.0" encoding="UTF-8" standalone="no"?>
<svg
   xmlns:dc="http://purl.org/dc/elements/1.1/"
   xmlns:cc="http://creativecommons.org/ns#"
   xmlns:rdf="http://www.w3.org/1999/02/22-rdf-syntax-ns#"
   xmlns:svg="http://www.w3.org/2000/svg"
   xmlns="http://www.w3.org/2000/svg"
   xmlns:sodipodi="http://sodipodi.sourceforge.net/DTD/sodipodi-0.dtd"
   xmlns:inkscape="http://www.inkscape.org/namespaces/inkscape"
   width="1400"
   height="350"
   viewBox="0 0 370.41667 92.604164"
   version="1.1"
   id="svg8"
   inkscape:version="1.0.1 (3bc2e813f5, 2020-09-07)"
   sodipodi:docname="qritzeljagd.svg"
   inkscape:export-filename="/home/peter/Documents/HSZG/fsr/logo/new/draft3-A-60x36px-@2.66x.png"
   inkscape:export-xdpi="512"
   inkscape:export-ydpi="512">
  <defs
     id="defs2">
    <rect
       x="74.248856"
       y="213.3308"
       width="24.387724"
       height="9.3157749"
       id="rect842" />
    <rect
       x="74.248856"
       y="213.3308"
       width="24.387724"
       height="9.3157749"
       id="rect855" />
  </defs>
  <sodipodi:namedview
     id="base"
     pagecolor="#ffffff"
     bordercolor="#666666"
     borderopacity="1.0"
     inkscape:pageopacity="0.0"
     inkscape:pageshadow="2"
     inkscape:zoom="1"
     inkscape:cx="758.44942"
     inkscape:cy="178.64912"
     inkscape:document-units="px"
     inkscape:current-layer="g857"
     showgrid="false"
     units="px"
     inkscape:window-width="1920"
     inkscape:window-height="1043"
     inkscape:window-x="0"
     inkscape:window-y="0"
     inkscape:window-maximized="1"
     fit-margin-top="0"
     fit-margin-left="0"
     fit-margin-right="0"
     fit-margin-bottom="0"
     inkscape:document-rotation="0">
    <inkscape:grid
       type="xygrid"
       id="grid1399"
       originx="2.6458333"
       originy="2.116667" />
  </sodipodi:namedview>
  <metadata
     id="metadata5">
    <rdf:RDF>
      <cc:Work
         rdf:about="">
        <dc:format>image/svg+xml</dc:format>
        <dc:type
           rdf:resource="http://purl.org/dc/dcmitype/StillImage" />
        <dc:title />
      </cc:Work>
    </rdf:RDF>
  </metadata>
  <g
     inkscape:label="F 960x576"
     inkscape:groupmode="layer"
     id="g859"
     transform="translate(-59.795833,-87.449991)"
     style="display:inline">
    <g
       transform="matrix(16,0,0,16,-1055.6115,-3282.4716)"
       id="g857">
      <g
         id="g851"
         transform="rotate(134.49472,77.400897,212.62739)">
        <path
           inkscape:connector-curvature="0"
           id="path845"
           style="fill:#2f71a3;fill-opacity:1;stroke:#ffffff;stroke-width:0.396875;stroke-linecap:round;stroke-linejoin:round;stroke-miterlimit:4;stroke-dasharray:none;stroke-opacity:1;paint-order:stroke fill markers"
           d="m 81.491667,214.64843 c -0.62103,0 -1.124476,0.50346 -1.124479,1.12448 -2e-6,0.62104 0.503445,1.12448 1.124479,1.12448 0.621034,0 1.12448,-0.50344 1.124479,-1.12448 -5e-6,-0.62102 -0.503449,-1.12448 -1.124479,-1.12448 z m 1.918229,1.12449 c -2e-6,1.0594 -0.858821,1.91822 -1.918228,1.91822 -1.059408,0 -1.918228,-0.85882 -1.91823,-1.91822 2e-6,-1.05941 0.858822,-1.91823 1.91823,-1.91823 1.059407,0 1.918226,0.85882 1.918228,1.91823 z" />
        <path
           style="fill:none;stroke:#ffffff;stroke-width:1.32292;stroke-linecap:round;stroke-linejoin:round;stroke-miterlimit:4;stroke-dasharray:none;stroke-opacity:1"
           d="m 81.491667,216.03749 v -2.38124"
           id="path847"
           inkscape:connector-curvature="0"
           sodipodi:nodetypes="cc" />
        <path
           style="color:#000000;font-style:normal;font-variant:normal;font-weight:normal;font-stretch:normal;font-size:medium;line-height:normal;font-family:sans-serif;font-variant-ligatures:normal;font-variant-position:normal;font-variant-caps:normal;font-variant-numeric:normal;font-variant-alternates:normal;font-feature-settings:normal;text-indent:0;text-align:start;text-decoration:none;text-decoration-line:none;text-decoration-style:solid;text-decoration-color:#000000;letter-spacing:normal;word-spacing:normal;text-transform:none;writing-mode:lr-tb;direction:ltr;text-orientation:mixed;dominant-baseline:auto;baseline-shift:baseline;text-anchor:start;white-space:normal;shape-padding:0;clip-rule:nonzero;display:inline;overflow:visible;visibility:visible;opacity:1;isolation:auto;mix-blend-mode:normal;color-interpolation:sRGB;color-interpolation-filters:linearRGB;solid-color:#000000;solid-opacity:1;vector-effect:none;fill:#addb16;fill-opacity:1;fill-rule:nonzero;stroke:#566d0b;stroke-width:0.0132292;stroke-linecap:round;stroke-linejoin:round;stroke-miterlimit:4;stroke-dasharray:none;stroke-dashoffset:0;stroke-opacity:0.501961;color-rendering:auto;image-rendering:auto;shape-rendering:auto;text-rendering:auto;enable-background:accumulate"
           d="m 81.486328,213.25391 a 0.39691468,0.39691468 0 0 0 -0.390625,0.40234 v 2.38086 a 0.39691468,0.39691468 0 1 0 0.792969,0 v -2.38086 a 0.39691468,0.39691468 0 0 0 -0.402344,-0.40234 z"
           id="path849"
           inkscape:connector-curvature="0" />
      </g>
      <g
         aria-label="FSR"
         inkscape:transform-center-x="-0.18333042"
         inkscape:transform-center-y="-0.04582677"
         style="font-style:normal;font-weight:normal;font-size:10.2664px;line-height:1.25;font-family:sans-serif;letter-spacing:0px;word-spacing:0px;fill:#525252;fill-opacity:1;stroke:#ffffff;stroke-width:0.176213;stroke-linecap:round;stroke-linejoin:round;stroke-miterlimit:4;stroke-dasharray:none;stroke-opacity:1;paint-order:stroke fill markers"
         id="text855"
         transform="translate(-15.685218,0.30617938)">
        <path
           d="m 91.207594,213.52191 v 1.15564 h -0.858038 v -3.17583 h 1.040507 q 1.294662,0 1.294662,0.93841 0,0.55175 -0.538718,0.85369 l 0.925378,1.38373 h -0.973168 l -0.673398,-1.15564 z m 0,-0.64516 h 0.160747 q 0.449656,0 0.449656,-0.39752 0,-0.32801 -0.440967,-0.32801 h -0.169436 z"
           style="font-style:normal;font-variant:normal;font-weight:800;font-stretch:normal;font-size:4.44877px;font-family:'Open Sans';-inkscape-font-specification:'Open Sans Ultra-Bold';text-align:start;letter-spacing:-0.15875px;text-anchor:start;fill:#525252;fill-opacity:1;stroke:#ffffff;stroke-width:0.176213;stroke-linecap:round;stroke-linejoin:round;stroke-miterlimit:4;stroke-dasharray:none;stroke-opacity:1;paint-order:stroke fill markers"
           id="path824"
           inkscape:connector-curvature="0" />
      </g>
      <g
         aria-label="itzeljagd"
         transform="translate(3.0935762,-2.3872506)"
         id="text840"
         style="font-style:normal;font-weight:normal;font-size:0.661458px;line-height:1.25;font-family:sans-serif;white-space:pre;shape-inside:url(#rect842);display:inline;fill:#525252;fill-opacity:1;stroke:none">
        <path
           d="m 74.943525,217.38491 h -0.381113 v -2.32975 h 0.381113 z m 0.03015,-2.94771 q 0,0.0969 -0.05383,0.16149 -0.05383,0.0646 -0.163642,0.0646 -0.107659,0 -0.161489,-0.0646 -0.05383,-0.0646 -0.05383,-0.16149 0,-0.0969 0.05383,-0.16364 0.05383,-0.0668 0.161489,-0.0668 0.107659,0 0.161489,0.0689 0.05598,0.0667 0.05598,0.16149 z"
           style="font-style:normal;font-variant:normal;font-weight:normal;font-stretch:normal;font-size:4.40972px;font-family:'Roboto Condensed';-inkscape-font-specification:'Roboto Condensed, Normal';font-variant-ligatures:normal;font-variant-caps:normal;font-variant-numeric:normal;font-variant-east-asian:normal;fill:#525252;fill-opacity:1"
           id="path846" />
        <path
           d="m 76.041649,214.49103 v 0.56413 h 0.350969 v 0.30791 h -0.350969 v 1.44478 q 0,0.13781 0.04522,0.20886 0.04522,0.0711 0.155029,0.0711 0.07536,0 0.152876,-0.0258 l -0.0043,0.32298 q -0.129191,0.0431 -0.264842,0.0431 -0.226084,0 -0.344509,-0.16149 -0.118426,-0.16149 -0.118426,-0.45647 v -1.44694 h -0.355275 v -0.30791 h 0.355275 v -0.56413 z"
           style="font-style:normal;font-variant:normal;font-weight:normal;font-stretch:normal;font-size:4.40972px;font-family:'Roboto Condensed';-inkscape-font-specification:'Roboto Condensed, Normal';font-variant-ligatures:normal;font-variant-caps:normal;font-variant-numeric:normal;font-variant-east-asian:normal;fill:#525252;fill-opacity:1"
           id="path848" />
        <path
           d="m 77.197908,217.05978 h 1.123962 v 0.32513 h -1.558905 v -0.29284 l 1.067979,-1.70747 h -1.059366 v -0.32944 h 1.507228 v 0.28207 z"
           style="font-style:normal;font-variant:normal;font-weight:normal;font-stretch:normal;font-size:4.40972px;font-family:'Roboto Condensed';-inkscape-font-specification:'Roboto Condensed, Normal';font-variant-ligatures:normal;font-variant-caps:normal;font-variant-numeric:normal;font-variant-east-asian:normal;fill:#525252;fill-opacity:1"
           id="path850" />
        <path
           d="m 79.61378,217.42797 q -0.434943,0 -0.667487,-0.25838 -0.232544,-0.26054 -0.23685,-0.76223 v -0.28207 q 0,-0.52107 0.226084,-0.81605 0.228238,-0.29714 0.635189,-0.29714 0.409105,0 0.611505,0.26053 0.202399,0.26054 0.206705,0.81175 v 0.24977 h -1.300523 v 0.0538 q 0,0.37466 0.139957,0.54476 0.14211,0.1701 0.406952,0.1701 0.167948,0 0.294986,-0.0624 0.129191,-0.0646 0.241157,-0.2024 l 0.198093,0.24115 q -0.247617,0.34882 -0.755768,0.34882 z m -0.04306,-2.08859 q -0.23685,0 -0.350969,0.16364 -0.114118,0.16149 -0.129191,0.50385 h 0.917257 v -0.0517 q -0.01507,-0.33159 -0.120579,-0.4737 -0.103352,-0.14211 -0.316518,-0.14211 z"
           style="font-style:normal;font-variant:normal;font-weight:normal;font-stretch:normal;font-size:4.40972px;font-family:'Roboto Condensed';-inkscape-font-specification:'Roboto Condensed, Normal';font-variant-ligatures:normal;font-variant-caps:normal;font-variant-numeric:normal;font-variant-east-asian:normal;fill:#525252;fill-opacity:1"
           id="path852" />
        <path
           d="m 81.256659,217.38491 h -0.381113 v -3.30729 h 0.381113 z"
           style="font-style:normal;font-variant:normal;font-weight:normal;font-stretch:normal;font-size:4.40972px;font-family:'Roboto Condensed';-inkscape-font-specification:'Roboto Condensed, Normal';font-variant-ligatures:normal;font-variant-caps:normal;font-variant-numeric:normal;font-variant-east-asian:normal;fill:#525252;fill-opacity:1"
           id="path854" />
        <path
           d="m 82.24497,215.05516 v 2.62258 q -0.0065,0.64811 -0.512457,0.64811 -0.116272,0 -0.208859,-0.0388 l -0.0022,-0.31867 q 0.05814,0.0172 0.148569,0.0172 0.09689,0 0.144264,-0.0732 0.04952,-0.0711 0.04952,-0.24977 v -2.60751 z m 0.01723,-0.61796 q 0,0.0969 -0.05383,0.16149 -0.05383,0.0646 -0.163642,0.0646 -0.107659,0 -0.161488,-0.0646 -0.05168,-0.0646 -0.05168,-0.16149 0,-0.0969 0.05168,-0.16364 0.05383,-0.0668 0.161488,-0.0668 0.10766,0 0.161489,0.0689 0.05598,0.0667 0.05598,0.16149 z"
           style="font-style:normal;font-variant:normal;font-weight:normal;font-stretch:normal;font-size:4.40972px;font-family:'Roboto Condensed';-inkscape-font-specification:'Roboto Condensed, Normal';font-variant-ligatures:normal;font-variant-caps:normal;font-variant-numeric:normal;font-variant-east-asian:normal;fill:#525252;fill-opacity:1"
           id="path856" />
        <path
           d="m 84.040726,217.38491 q -0.03445,-0.0754 -0.04952,-0.25408 -0.2024,0.29714 -0.516764,0.29714 -0.316518,0 -0.495233,-0.17656 -0.176561,-0.17872 -0.176561,-0.50169 0,-0.35528 0.241157,-0.56414 0.241156,-0.20886 0.661027,-0.21316 h 0.279914 v -0.24762 q 0,-0.20886 -0.09259,-0.29714 -0.09259,-0.0883 -0.282067,-0.0883 -0.172255,0 -0.279914,0.10335 -0.107659,0.1012 -0.107659,0.25839 h -0.381113 q 0,-0.17872 0.105506,-0.34021 0.105506,-0.16364 0.28422,-0.25623 0.178714,-0.0926 0.398339,-0.0926 0.357428,0 0.542602,0.17871 0.187327,0.17656 0.191633,0.51677 v 1.17563 q 0.0022,0.26915 0.07321,0.46725 v 0.0344 z m -0.508152,-0.3036 q 0.139957,0 0.266995,-0.0775 0.127038,-0.0775 0.185174,-0.19378 v -0.55553 h -0.215318 q -0.271301,0.004 -0.428484,0.12274 -0.157182,0.11627 -0.157182,0.32728 0,0.19809 0.07967,0.28853 0.07967,0.0883 0.269147,0.0883 z"
           style="font-style:normal;font-variant:normal;font-weight:normal;font-stretch:normal;font-size:4.40972px;font-family:'Roboto Condensed';-inkscape-font-specification:'Roboto Condensed, Normal';font-variant-ligatures:normal;font-variant-caps:normal;font-variant-numeric:normal;font-variant-east-asian:normal;fill:#525252;fill-opacity:1"
           id="path858" />
        <path
           d="m 84.878314,216.11453 q 0,-0.54476 0.198093,-0.82252 0.198093,-0.27991 0.579207,-0.27991 0.355275,0 0.540449,0.3036 l 0.01938,-0.26054 h 0.34451 v 2.35128 q 0,0.43279 -0.221778,0.66318 -0.221778,0.23254 -0.617964,0.23254 -0.172255,0 -0.387573,-0.0861 -0.213165,-0.084 -0.320824,-0.20886 l 0.155029,-0.26269 q 0.23685,0.23254 0.523224,0.23254 0.475853,0 0.488772,-0.51892 v -0.30359 q -0.185174,0.27345 -0.525377,0.27345 -0.361734,0 -0.564134,-0.2713 -0.202399,-0.27346 -0.211012,-0.78376 z m 0.381114,0.21747 q 0,0.39188 0.114119,0.57705 0.116271,0.18302 0.37896,0.18302 0.28422,0 0.42633,-0.29068 v -1.16487 q -0.148569,-0.28637 -0.422024,-0.28637 -0.262688,0 -0.37896,0.18517 -0.116272,0.18302 -0.118425,0.56414 z"
           style="font-style:normal;font-variant:normal;font-weight:normal;font-stretch:normal;font-size:4.40972px;font-family:'Roboto Condensed';-inkscape-font-specification:'Roboto Condensed, Normal';font-variant-ligatures:normal;font-variant-caps:normal;font-variant-numeric:normal;font-variant-east-asian:normal;fill:#525252;fill-opacity:1"
           id="path860" />
        <path
           d="m 87.04657,216.11453 q 0,-0.5383 0.200246,-0.82037 0.202399,-0.28206 0.579206,-0.28206 0.333744,0 0.52107,0.2713 v -1.20578 h 0.381114 v 3.30729 H 88.37939 l -0.01938,-0.24977 q -0.187327,0.29283 -0.536143,0.29283 -0.361735,0 -0.568441,-0.27991 -0.204552,-0.28207 -0.208858,-0.79453 z m 0.381113,0.21747 q 0,0.39188 0.116272,0.57705 0.116272,0.18302 0.37896,0.18302 0.284221,0 0.424177,-0.28637 v -1.17564 q -0.146416,-0.27991 -0.422023,-0.27991 -0.262689,0 -0.378961,0.18517 -0.116272,0.18302 -0.118425,0.56414 z"
           style="font-style:normal;font-variant:normal;font-weight:normal;font-stretch:normal;font-size:4.40972px;font-family:'Roboto Condensed';-inkscape-font-specification:'Roboto Condensed, Normal';font-variant-ligatures:normal;font-variant-caps:normal;font-variant-numeric:normal;font-variant-east-asian:normal;fill:#525252;fill-opacity:1"
           id="path862" />
      </g>
    </g>
  </g>
</svg>
